{
"count": 87, 
"next": "https://swapi.co/api/people/?page=2", 
"previous": null, 
"results": [
  {
   "name": "Luke Skywalker", 
  }, 
  {
   "name": "Bitch",
  },
 ]
}